…
I’m definitely not your go-to when it comes to iteration such as purrr::map, but let me try and simplify what we just did. I first created the complete path of our scripts and then iterated the function readLines across it. I could have done the pasting within map but I wanted to simplify it for us. Essentially, you can read map as follows: Run function readLines on every element of vector tt_path (The vector containing our path to each R/Rmd script). For a better understanding of the map function I highly recommend exploring the documentations.

I then printed the head script so that we can look at it as we continue our extraction of packages. First off, notice I subset it using [[1]], that’s because map returned a list class. Second, and more important for our analysis, our line breaks from the original code are preserved. That means that every element of a package script (a list within a list) is essentially a line. Therefore, we can operate on it without any special regex other than searching for the library function.

However, a caveat is important to state: I do not attempt to capture packages called inline such as the readr::read_csv. It’s definitely possible, but I decided not to for this example. I imagine you can easily incorporate it in some manner if you wish to do so.

Cleaning

Ok then, now that we read all lines in let’s extract all libraries. If my memory is correct, I mainly use functions either by loadings the library through library() or inline with library:: so let’s capture that and return a dataframe:

## # A tibble: 254 x 2
##    tidytuesday              package             
##    <chr>                    <chr>               
##  1 National Parks           tidyverse           
##  2 National Parks           png                 
##  3 National Parks           gridGraphics        
##  4 National Parks           park_visits <- readr
##  5 School_Diversity         tidyverse           
##  6 School_Diversity         stringr             
##  7 School_Diversity_Updated tidyverse           
##  8 School_Diversity_Updated stringr             
##  9 School_Diversity_Updated forcats             
## 10 Barstool_Top_2_Percent   tidyverse           
## # ... with 244 more rows
…
