…
``` r
library(tidyverse)
library(tidytext)
library(skimr)
```

``` r
files <- paste0("split_data/",list.files(path = "split_data/"))
dogs <- map_dfr(files, read_csv, col_types = cols())

dogs
```

    # A tibble: 7,155 × 14
       owner_id age   gender city_district quarter primary_breed           is_hybrid
          <dbl> <chr> <chr>          <dbl>   <dbl> <chr>                   <chr>    
     1   124913 41-50 w                 11     115 Spitz                   Mischling
     2    84494 61-70 w                 10     102 Dachshund               <NA>     
     3    85293 81-90 w                 11     115 Malteser                Mischling
     4    80204 51-60 w                 11     111 Appenzeller             <NA>     
     5    80399 61-70 w                 12     123 Appenzeller             Mischling
     6    82293 71-80 w                  2      24 Mischling klein         <NA>     
     7    82452 61-70 w                 10     102 Dachshund               <NA>     
     8    82452 61-70 w                 10     102 Dachshund               <NA>     
     9    83136 71-80 m                  3      31 Mischling klein         <NA>     
    10    83476 61-70 w                 11     119 West Highland White Te… <NA>     
    # … with 7,145 more rows, and 7 more variables: secondary_breed <chr>,
    #   is_secondary_hybrid <lgl>, breed_type <chr>, dog_yob <dbl>,
    #   dog_gender <chr>, dog_color <chr>, dog_dob <date>
…
**R <i class="fab fa-r-project"></i>**

``` r
dogs %>% 
  transmute(
    new_color = strsplit(dog_color, split = "/")
    ) %>% 
  unnest() %>% 
  count(new_color, sort = T)
```

    # A tibble: 89 × 2
       new_color     n
       <chr>     <int>
     1 schwarz    2349
     2 weiss      2207
     3 braun      1836
     4 tricolor    696
     5 beige       622
     6 rot         368
     7 grau        282
     8 tan         228
     9 hellbraun   170
    10 black       160
    # … with 79 more rows
…
  group_by(owner_id) %>% 
  filter(
    n() > 1,
    dog_dob == min(dog_dob) | dog_dob == max(dog_dob)
  ) %>% 
  select(owner_id, dog_dob) %>% 
  arrange(owner_id, dog_dob) %>% 
  summarise(
    timediff = difftime(dog_dob, time2 = lag(dog_dob), units = "days")
  ) %>% 
  fill(timediff, .direction = "up") %>% 
  arrange(-timediff)
```

    # A tibble: 1,153 × 2
    # Groups:   owner_id [576]
       owner_id timediff 
          <dbl> <drtn>   
     1    87158 5661 days
     2    87158 5661 days
     3    88250 5265 days
     4    88250 5265 days
     5   100112 5234 days
     6   100112 5234 days
     7   109472 4932 days
     8   109472 4932 days
     9   128461 4932 days
    10   128461 4932 days
    # … with 1,143 more rows
…
