…
R 

files <- paste0("split_data/",list.files(path = "split_data/"))
dogs <- map_dfr(files, read_csv, col_types = cols())

dogs

## # A tibble: 7,155 × 14
##    owner_id age   gender city_district quarter primary_breed           is_hybrid
##       <dbl> <chr> <chr>          <dbl>   <dbl> <chr>                   <chr>    
##  1   124913 41-50 w                 11     115 Spitz                   Mischling
##  2    84494 61-70 w                 10     102 Dachshund               <NA>     
##  3    85293 81-90 w                 11     115 Malteser                Mischling
##  4    80204 51-60 w                 11     111 Appenzeller             <NA>     
##  5    80399 61-70 w                 12     123 Appenzeller             Mischling
##  6    82293 71-80 w                  2      24 Mischling klein         <NA>     
##  7    82452 61-70 w                 10     102 Dachshund               <NA>     
##  8    82452 61-70 w                 10     102 Dachshund               <NA>     
##  9    83136 71-80 m                  3      31 Mischling klein         <NA>     
## 10    83476 61-70 w                 11     119 West Highland White Te… <NA>     
## # … with 7,145 more rows, and 7 more variables: secondary_breed <chr>,
## #   is_secondary_hybrid <lgl>, breed_type <chr>, dog_yob <dbl>,
## #   dog_gender <chr>, dog_color <chr>, dog_dob <date>
…
