…
remove_text <- function(book, low_id, top_id = max(rowid), author = deparse(substitute(book))){
  book %>%
  mutate(author = as.factor(author)) %>% 
  rowid_to_column() %>% 
  filter(rowid >= {{low_id}}, rowid <= {{top_id}}) %>% 
  select(author, text, -c(rowid, gutenberg_id))}

books <- rbind(
  remove_text(Mill, 454),
  remove_text(Hobbes, 360, 22317),
  remove_text(Machiavelli, 464, 3790),
  remove_text(Plato, 606))

## # A tibble: 45,490 x 2
##    author text                                                                  
##    <fct>  <chr>                                                                 
##  1 Mill   ""                                                                    
##  2 Mill   ""                                                                    
##  3 Mill   "CHAPTER I."                                                          
##  4 Mill   ""                                                                    
##  5 Mill   "INTRODUCTORY."                                                       
##  6 Mill   ""                                                                    
##  7 Mill   ""                                                                    
##  8 Mill   "The subject of this Essay is not the so-called Liberty of the Will, ~
##  9 Mill   "unfortunately opposed to the misnamed doctrine of Philosophical"     
## 10 Mill   "Necessity; but Civil, or Social Liberty: the nature and limits of th~
## # ... with 45,480 more rows
…
