Israeli elections on Twitter | Amit Levinson
…
gantz <-elections %>%
  select(text) %>% 
  unnest_tokens(bigram, text, token = "ngrams", n = 2) %>%
  separate(bigram, into = c("word1", "word2"), sep = " ", remove = FALSE) %>% 
  filter(word1 %in% "×’× ×¥" |
         word2 %in% "×’× ×¥",
         !grepl("([a-z]+|×‘×—×™×¨×•×ª)", bigram))

The code is similar to what we did earlier only this time we left bigrams that match the word we want - bigrams containing the word Gantz. Now that we have our list of bigrams, letâ€™s look at the count of bigrams containing the word ×’× ×¥ (â€˜Gantzâ€™):

gantz %>% 
  count(bigram, sort = T)

## # A tibble: 978 x 2
##    bigram         n
##    <chr>      <int>
##  1 ×©×œ ×’× ×¥       160
##  2 ×‘× ×™ ×’× ×¥      138
##  3 ×’× ×¥ ×œ×        90
##  4 ×¢×œ ×’× ×¥        70
##  5 ××ª ×’× ×¥        69
##  6 ×¢× ×’× ×¥        61
##  7 ×× ×’× ×¥        41
##  8 ×’× ×¥ ×”×™×”       25
##  9 ×’× ×¥ ××•        19
## 10 ×’× ×¥ ×œ×™×‘×¨××Ÿ    19
## # ... with 968 more rows
…
